Confidence and prediction intervals | Kevin Wang
…
We will now repeat the data generation process 100 times and compute the corresponding statistics. The code below is not quite readable unless you are already familiar with tidyverse and nested tibble. The essence of the code is to first construct data in exactly the same way as we have above. And then, for each of the 100 data generation, we will then extract the corresponding fitted line, CI and PI for visualisation.

library(gganimate)
nsim = 100 ## Number of simulations
n = 30

sim_tbl = tibble(
  x = rnorm(n*nsim, 2, sd = 0.2),
  epsilon = rnorm(n*nsim, 0, sd = 0.2),
  y = 1 + 2*x + epsilon,
  sim_num = rep(1:nsim, n)) ## This tibble puts all the simulated data in one

sim_tbl

## # A tibble: 3,000 x 4
##        x epsilon     y sim_num
##    <dbl>   <dbl> <dbl>   <int>
##  1  2.11  0.122   5.34       1
##  2  2.02  0.107   5.15       2
##  3  1.64  0.151   4.44       3
##  4  1.78 -0.0513  4.51       4
##  5  1.95 -0.224   4.67       5
##  6  1.78  0.159   4.73       6
##  7  1.90  0.0888  4.89       7
##  8  2.33 -0.101   5.55       8
##  9  2.08  0.0578  5.22       9
## 10  1.68  0.267   4.63      10
## # … with 2,990 more rows

sim_lm_tbl = sim_tbl %>% 
  group_by(sim_num) %>% 
  tidyr::nest() %>% ## Group by simulation number and separately fit linear models
  dplyr::mutate(
    lm = purrr::map(.x = data, .f = ~ lm(y ~ x, data = .x)),
    lm_tidy = purrr::map(lm, broom::tidy))

sim_lm_tbl

## # A tibble: 100 x 4
## # Groups:   sim_num [100]
##    sim_num data                  lm     lm_tidy             
##      <int> <list>                <list> <list>              
##  1       1 <tibble[,3] [30 × 3]> <lm>   <tibble[,5] [2 × 5]>
##  2       2 <tibble[,3] [30 × 3]> <lm>   <tibble[,5] [2 × 5]>
##  3       3 <tibble[,3] [30 × 3]> <lm>   <tibble[,5] [2 × 5]>
##  4       4 <tibble[,3] [30 × 3]> <lm>   <tibble[,5] [2 × 5]>
##  5       5 <tibble[,3] [30 × 3]> <lm>   <tibble[,5] [2 × 5]>
##  6       6 <tibble[,3] [30 × 3]> <lm>   <tibble[,5] [2 × 5]>
##  7       7 <tibble[,3] [30 × 3]> <lm>   <tibble[,5] [2 × 5]>
##  8       8 <tibble[,3] [30 × 3]> <lm>   <tibble[,5] [2 × 5]>
##  9       9 <tibble[,3] [30 × 3]> <lm>   <tibble[,5] [2 × 5]>
## 10      10 <tibble[,3] [30 × 3]> <lm>   <tibble[,5] [2 × 5]>
## # … with 90 more rows
…
For each the linear models that we have fitted, we will now extract the coefficients. We will perform additional manipulations for the purpose of plotting.

Notice how even though we have many fitted lines, their deviations from the single fitted line are small and almost cover the same range as the confidence interval (gray region). This is exactly what a confidence interval is designed for: to capture how a single fitted line jiggles under sampling from the same population.

sim_coef_tbl = sim_lm_tbl %>% 
  dplyr::select(sim_num, lm_tidy) %>% 
  unnest(lm_tidy) %>% 
  dplyr::select(sim_num, term, estimate) %>%
  tidyr::pivot_wider(names_from = "term",
                     values_from = "estimate")

sim_coef_tbl

## # A tibble: 100 x 3
## # Groups:   sim_num [100]
##    sim_num `(Intercept)`     x
##      <int>         <dbl> <dbl>
##  1       1         0.484  2.23
##  2       2         0.941  2.05
##  3       3         1.38   1.82
##  4       4         1.85   1.59
##  5       5         0.972  2.03
##  6       6         0.606  2.17
##  7       7         0.911  2.06
##  8       8         1.24   1.88
##  9       9         0.524  2.24
## 10      10         0.826  2.11
## # … with 90 more rows
…
